{
  "orientation" : 0,
  "updateDelay" : 0.3,
  "designModeSelected" : 0,
  "cachedDeviceHeight" : 800,
  "contentScale" : 1,
  "cachedDeviceWidth" : 1280,
  "fullScreen" : false,
  "deviceType" : "custom",
  "sharedPrototype" : true,
  "propertyPanelToggleStates" : {

  },
  "projectId" : "A1208A47-28D3-4569-AC38-79F51093E76E",
  "deviceOrientation" : 0,
  "selectedHand" : "",
  "showBezel" : false,
  "foldedCodeRanges" : [
    "{0, 105}",
    "{106, 105}",
    "{212, 463}",
    "{676, 371}",
    "{1048, 303}",
    "{1352, 422}",
    "{1775, 1637}",
    "{3413, 1323}",
    "{4737, 1488}",
    "{6226, 749}"
  ],
  "deviceScale" : "fit"
}