{
  "_class": "shapeGroup",
  "clippingMaskMode": 0,
  "do_objectID": "4B4CD904-7B7D-423A-B418-8C391FB1AE30",
  "exportOptions": {
    "_class": "exportOptions",
    "exportFormats": [
    ],
    "includedLayerIds": [
    ],
    "layerOptions": 0,
    "shouldTrim": false
  },
  "frame": {
    "_class": "rect",
    "constrainProportions": false,
    "height": 4,
    "width": 120,
    "x": 0,
    "y": 0
  },
  "hasClickThrough": false,
  "hasClippingMask": false,
  "isFlippedHorizontal": false,
  "isFlippedVertical": false,
  "isLocked": false,
  "isVisible": true,
  "layerListExpandedType": 1,
  "layers": [
    {
      "class": "rectangle",
      "id": "527A8568-54F5-447F-A896-6FBABAC5F13A"
    }
  ],
  "name": "Rectangle 5 Copy 6",
  "nameIsFixed": false,
  "resizingConstraint": 63,
  "resizingType": 0,
  "rotation": 0,
  "shouldBreakMaskChain": false,
  "style": {
    "sharedObjectID": "EE84FABF-29A5-4794-8D45-974CDE0A63E3"
  },
  "windingRule": 1
}