{
  "_class": "shapePath",
  "booleanOperation": -1,
  "do_objectID": "5B5FDE6F-1AA2-47B4-94E3-AB005BB3A00A",
  "edited": true,
  "exportOptions": {
    "_class": "exportOptions",
    "exportFormats": [
    ],
    "includedLayerIds": [
    ],
    "layerOptions": 0,
    "shouldTrim": false
  },
  "frame": {
    "_class": "rect",
    "constrainProportions": false,
    "height": 4,
    "width": 2,
    "x": 6,
    "y": 5
  },
  "isFlippedHorizontal": false,
  "isFlippedVertical": false,
  "isLocked": false,
  "isVisible": true,
  "layerListExpandedType": 0,
  "name": "Path",
  "nameIsFixed": false,
  "path": {
    "_class": "path",
    "isClosed": true,
    "pointRadiusBehaviour": 1,
    "points": [
      {
        "_class": "curvePoint",
        "cornerRadius": 0,
        "curveFrom": "{0.77614237491539662, 0}",
        "curveMode": 2,
        "curveTo": "{0.22385762508460338, 0}",
        "hasCurveFrom": true,
        "hasCurveTo": true,
        "point": "{0.5, 0}"
      },
      {
        "_class": "curvePoint",
        "cornerRadius": 0,
        "curveFrom": "{1, 0.25}",
        "curveMode": 4,
        "curveTo": "{1, 0.11192881254230169}",
        "hasCurveFrom": false,
        "hasCurveTo": true,
        "point": "{1, 0.25}"
      },
      {
        "_class": "curvePoint",
        "cornerRadius": 0,
        "curveFrom": "{1, 0.88807118745769831}",
        "curveMode": 4,
        "curveTo": "{1, 0.75}",
        "hasCurveFrom": true,
        "hasCurveTo": false,
        "point": "{1, 0.75}"
      },
      {
        "_class": "curvePoint",
        "cornerRadius": 0,
        "curveFrom": "{0.22385762508460338, 1}",
        "curveMode": 2,
        "curveTo": "{0.77614237491539662, 1}",
        "hasCurveFrom": true,
        "hasCurveTo": true,
        "point": "{0.5, 1}"
      },
      {
        "_class": "curvePoint",
        "cornerRadius": 0,
        "curveFrom": "{0, 0.75}",
        "curveMode": 4,
        "curveTo": "{0, 0.88807118745769831}",
        "hasCurveFrom": false,
        "hasCurveTo": true,
        "point": "{0, 0.75}"
      },
      {
        "_class": "curvePoint",
        "cornerRadius": 0,
        "curveFrom": "{0, 0.11192881254230169}",
        "curveMode": 4,
        "curveTo": "{0, 0.25}",
        "hasCurveFrom": true,
        "hasCurveTo": false,
        "point": "{0, 0.25}"
      }
    ]
  },
  "resizingConstraint": 63,
  "resizingType": 0,
  "rotation": 0,
  "shouldBreakMaskChain": false
}